(e=  1, t=0, type= obj_call     , o=6    ,function=NQuasiQueue::enqMethod(int))   
(e=  2, t=0, type= obj_resp     , o=6    ,function=NQuasiQueue::enqMethod(int))   
(e=  6, t=2, type= obj_call     , o=6    ,function=NQuasiQueue::enqMethod(int))   
(e= -1, t=-1, type= unknown , t=-1)   
(e=  5, t=1, type= obj_call     , o=6    ,function=NQuasiQueue::enqMethod(int))   
(e=  6, t=2, type= obj_call     , o=6    ,function=NQuasiQueue::enqMethod(int))   
(e= -1, t=-1, type= unknown , t=-1)   
(e= -1, t=-1, type= unknown , t=-1)   
