(e=  1, t=0, type= obj_call     , o=6    ,function=NQuasiQueue::enqMethod(int))   
(e=  2, t=0, type= obj_resp     , o=6    ,function=NQuasiQueue::enqMethod(int))   
(e=  3, t=2, type= obj_call     , o=6    ,function=NQuasiQueue::enqMethod(int))   
(e=  4, t=2, type= obj_resp     , o=6    ,function=NQuasiQueue::enqMethod(int))   
(e=  5, t=1, type= obj_call     , o=6    ,function=NQuasiQueue::enqMethod(int))   
(e=  6, t=1, type= obj_resp     , o=6    ,function=NQuasiQueue::enqMethod(int))   
(e=  7, t=2, type= obj_call     , o=6    ,function=NQuasiQueue::enqMethod(int))   
(e=  8, t=2, type= obj_resp     , o=6    ,function=NQuasiQueue::enqMethod(int))   
(e=  9, t=1, type= obj_call     , o=6    ,function=NQuasiQueue::deqMethod())   
(e= 10, t=1, type= obj_resp     , o=6    ,function=NQuasiQueue::deqMethod()    ,return= 1)   
(e= 13, t=0, type= obj_call     , o=6    ,function=NQuasiQueue::deqMethod())   
(e= 14, t=0, type= obj_resp     , o=6    ,function=NQuasiQueue::deqMethod()    ,return= 2)   
(e= 15, t=0, type= obj_call     , o=6    ,function=NQuasiQueue::deqMethod())   
(e= 16, t=0, type= obj_resp     , o=6    ,function=NQuasiQueue::deqMethod()    ,return= 3)   
(e= 11, t=0, type= obj_call     , o=6    ,function=NQuasiQueue::deqMethod())   
(e= 12, t=0, type= obj_resp     , o=6    ,function=NQuasiQueue::deqMethod()    ,return= 0)   
