Filter: { NQuasiQueue::enqMethod(int), NQuasiQueue::deqMethod(), }
count: 1
 === run 1 ===
Enqueued : 0

Enqueued : 3
                 Dequed : 3
Enqueued : 1
Enqueued : 2

                 Dequed : 0
                 Dequed : 2
                 Dequed : 1
 === run 1 ===
Not Quazi Linearizable
 === run 2 ===
 === run 2 ===
count: 2
Enqueued : 0

Enqueued : 3
Enqueued : 1
Enqueued : 2
                 Dequed : 3

                 Dequed : 0
                 Dequed : 2
                 Dequed : 1
Not Quazi Linearizable
 === run 3 ===
 === run 3 ===
count: 3
Enqueued : 0

Enqueued : 3
                 Dequed : 3
Enqueued : 1
Enqueued : 2

                 Dequed : 0
                 Dequed : 2
                 Dequed : 1
Not Quazi Linearizable
 === run 4 ===
 === run 4 ===
count: 4
Enqueued : 0

Enqueued : 3
Enqueued : 1
Enqueued : 2
                 Dequed : 3

                 Dequed : 0
                 Dequed : 2
                 Dequed : 1
Not Quazi Linearizable
 === run 5 ===
 === run 5 ===
count: 5
Enqueued : 0

Enqueued : 3
                 Dequed : 3
Enqueued : 1
Enqueued : 2

                 Dequed : 1
                 Dequed : 0
                 Dequed : -999
Not Quazi Linearizable
 === run 6 ===
 === run 6 ===
count: 6
Enqueued : 0

Enqueued : 3
                 Dequed : 3
Enqueued : 1
Enqueued : 2

                 Dequed : 1
                 Dequed : 0
                 Dequed : -999
Not Quazi Linearizable
 === run 7 ===
 === run 7 ===
count: 7
Enqueued : 0

Enqueued : 3
run #7 is not complete,skip
 === run 8 ===
 === run 8 ===
count: 8
Enqueued : 0

Enqueued : 3
                 Dequed : 1
Enqueued : 1
Enqueued : 2

                 Dequed : 3
                 Dequed : 0
                 Dequed : -999
Not Quazi Linearizable
 === run 9 ===
 === run 9 ===
count: 9
Enqueued : 0

Enqueued : 3
                 Dequed : 1
Enqueued : 1
Enqueued : 2

                 Dequed : 3
                 Dequed : 0
                 Dequed : 2
Not Quazi Linearizable
 === run 10 ===
 === run 10 ===
count: 10
Enqueued : 0

Enqueued : 3
Enqueued : 1
Enqueued : 2
run #10 is not complete,skip
 === run 11 ===
 === run 11 ===
count: 11
Enqueued : 0

Enqueued : 1
Enqueued : 3
                 Dequed : 1
Enqueued : 2

                 Dequed : 3
                 Dequed : 0
                 Dequed : 2
Not Quazi Linearizable
 === run 12 ===
 === run 12 ===
count: 12
Enqueued : 0

Enqueued : 1
Enqueued : 3
                 Dequed : 1
Enqueued : 2

                 Dequed : 2
                 Dequed : 3
                 Dequed : 0
Not Quazi Linearizable
 === run 13 ===
 === run 13 ===
count: 13
Enqueued : 0

Enqueued : 1
Enqueued : 3
                 Dequed : 1
Enqueued : 2

                 Dequed : 2
                 Dequed : 3
                 Dequed : 0
Not Quazi Linearizable
 === run 14 ===
 === run 14 ===
count: 14
Enqueued : 0

Enqueued : 1
Enqueued : 3
run #14 is not complete,skip
 === run 15 ===
 === run 15 ===
count: 15
Enqueued : 0

Enqueued : 1
Enqueued : 3
                 Dequed : 2
Enqueued : 2

                 Dequed : 1
                 Dequed : 3
                 Dequed : 0
Not Quazi Linearizable
 === run 16 ===
 === run 16 ===
count: 16
Enqueued : 0

Enqueued : 1
Enqueued : 3
                 Dequed : 2
Enqueued : 2

                 Dequed : 1
                 Dequed : 3
                 Dequed : 0
Not Quazi Linearizable
 === run 17 ===
 === run 17 ===
count: 17
Enqueued : 0

Enqueued : 3
                 Dequed : 1
Enqueued : 1
Enqueued : 2

                 Dequed : 3
                 Dequed : 0
                 Dequed : 2
Not Quazi Linearizable
 === run 18 ===
 === run 18 ===
count: 18
Enqueued : 0

Enqueued : 3
                 Dequed : 1
Enqueued : 1
Enqueued : 2

                 Dequed : 2
                 Dequed : 3
                 Dequed : 0
Not Quazi Linearizable
 === run 19 ===
 === run 19 ===
count: 19
Enqueued : 0

Enqueued : 3
Enqueued : 1
                 Dequed : 1
Enqueued : 2

                 Dequed : 2
                 Dequed : 3
                 Dequed : 0
Not Quazi Linearizable
 === run 20 ===
 === run 20 ===
count: 20
Enqueued : 0

Enqueued : 3
Enqueued : 1
run #20 is not complete,skip
 === run 21 ===
 === run 21 ===
count: 21
Enqueued : 0

Enqueued : 3
Enqueued : 1
                 Dequed : 2
Enqueued : 2

                 Dequed : 1
                 Dequed : 3
                 Dequed : 0
Not Quazi Linearizable
 === run 22 ===
 === run 22 ===
count: 22
Enqueued : 0

Enqueued : 3
Enqueued : 1
                 Dequed : 2
Enqueued : 2

                 Dequed : 1
                 Dequed : 3
                 Dequed : 0
Not Quazi Linearizable
 === run 23 ===
 === run 23 ===
count: 23
Enqueued : 0

Enqueued : 3
                 Dequed : 1
Enqueued : 1
Enqueued : 2

                 Dequed : 3
                 Dequed : 0
                 Dequed : 2
Not Quazi Linearizable
 === run 24 ===
 === run 24 ===
count: 24
Enqueued : 0

Enqueued : 3
                 Dequed : 1
Enqueued : 1
Enqueued : 2

                 Dequed : 2
                 Dequed : 3
                 Dequed : 0
Not Quazi Linearizable
 === run 25 ===
 === run 25 ===
count: 25
Enqueued : 0

Enqueued : 3
Enqueued : 1
                 Dequed : 1
Enqueued : 2

                 Dequed : 2
                 Dequed : 3
                 Dequed : 0
Not Quazi Linearizable
 === run 26 ===
 === run 26 ===
count: 26
Enqueued : 0

Enqueued : 3
Enqueued : 1
run #26 is not complete,skip
 === run 27 ===
 === run 27 ===
count: 27
Enqueued : 0

Enqueued : 3
Enqueued : 1
                 Dequed : 2
Enqueued : 2

                 Dequed : 1
                 Dequed : 3
                 Dequed : 0
Not Quazi Linearizable
 === run 28 ===
 === run 28 ===
count: 28
Enqueued : 0

Enqueued : 3
Enqueued : 1
                 Dequed : 2
Enqueued : 2

                 Dequed : 1
                 Dequed : 3
                 Dequed : 0
Not Quazi Linearizable
 === run 29 ===
 === run 29 ===
count: 29
Enqueued : 0

Enqueued : 3
Enqueued : 1
                 Dequed : 2
Enqueued : 2

                 Dequed : 1
                 Dequed : 3
                 Dequed : 0
Not Quazi Linearizable
 === run 30 ===
 === run 30 ===
count: 30
Enqueued : 0

Enqueued : 3
Enqueued : 1
                 Dequed : 2
Enqueued : 2

                 Dequed : 1
                 Dequed : 3
                 Dequed : 0
Not Quazi Linearizable
 === run 31 ===
 === run 31 ===
count: 31
Enqueued : 0

Enqueued : 3
Enqueued : 1
Enqueued : 2
run #31 is not complete,skip
 === run 32 ===
 === run 32 ===
count: 32
Enqueued : 0

Enqueued : 3
                 Dequed : 1
Enqueued : 1
Enqueued : 2

                 Dequed : 3
                 Dequed : 0
                 Dequed : 2
Not Quazi Linearizable
 === run 33 ===
 === run 33 ===
count: 33
Enqueued : 0

Enqueued : 3
                 Dequed : 1
Enqueued : 1
Enqueued : 2

                 Dequed : 2
                 Dequed : 3
                 Dequed : 0
Not Quazi Linearizable
 === run 34 ===
 === run 34 ===
count: 34
Enqueued : 0

Enqueued : 3
Enqueued : 1
                 Dequed : 1
Enqueued : 2

                 Dequed : 2
                 Dequed : 3
                 Dequed : 0
Not Quazi Linearizable
 === run 35 ===
 === run 35 ===
count: 35
Enqueued : 0

Enqueued : 3
Enqueued : 1
run #35 is not complete,skip
 === run 36 ===
 === run 36 ===
count: 36
Enqueued : 0

Enqueued : 3
Enqueued : 1
                 Dequed : 2
Enqueued : 2

                 Dequed : 1
                 Dequed : 3
                 Dequed : 0
Not Quazi Linearizable
 === run 37 ===
 === run 37 ===
count: 37
Enqueued : 0

Enqueued : 3
Enqueued : 1
                 Dequed : 2
Enqueued : 2

                 Dequed : 1
                 Dequed : 3
                 Dequed : 0
Not Quazi Linearizable
 === run 38 ===
 === run 38 ===
count: 38
Enqueued : 0

Enqueued : 3
Enqueued : 1
                 Dequed : 2
Enqueued : 2

                 Dequed : 1
                 Dequed : 3
                 Dequed : 0
Not Quazi Linearizable
 === run 39 ===
 === run 39 ===
count: 39
Enqueued : 0

Enqueued : 3
Enqueued : 1
                 Dequed : 2
Enqueued : 2

                 Dequed : 1
                 Dequed : 3
                 Dequed : 0
Not Quazi Linearizable
 === run 40 ===
 === run 40 ===
count: 40
Enqueued : 0

Enqueued : 3
Enqueued : 1
Enqueued : 2
run #40 is not complete,skip
 === run 41 ===
 === run 41 ===
count: 41
Enqueued : 0

Enqueued : 1
Enqueued : 3
                 Dequed : 2
Enqueued : 2

                 Dequed : 1
                 Dequed : 3
                 Dequed : 0
Not Quazi Linearizable
 === run 42 ===
 === run 42 ===
count: 42
Enqueued : 0

Enqueued : 1
Enqueued : 3
                 Dequed : 2
Enqueued : 2

                 Dequed : 1
                 Dequed : 3
                 Dequed : 0
Not Quazi Linearizable
 === run 43 ===
 === run 43 ===
count: 43
Enqueued : 0

run #43 is not complete,skip
 === run 44 ===
 === run 44 ===
count: 44
Enqueued : 0

run #44 is not complete,skip
 === run 45 ===
 === run 45 ===
count: 45
Enqueued : 0

Enqueued : 3
                 Dequed : 3
Enqueued : 1
Enqueued : 2

                 Dequed : 1
                 Dequed : 0
                 Dequed : 2
Not Quazi Linearizable
 === run 46 ===
 === run 46 ===
count: 46
Enqueued : 0

Enqueued : 3
                 Dequed : 3
Enqueued : 1
Enqueued : 2

                 Dequed : 2
                 Dequed : 1
                 Dequed : 0
Not Quazi Linearizable
 === run 47 ===
 === run 47 ===
count: 47
Enqueued : 0

Enqueued : 3
Enqueued : 1
                 Dequed : 3
Enqueued : 2

                 Dequed : 2
                 Dequed : 1
                 Dequed : 0
Not Quazi Linearizable
 === run 48 ===
 === run 48 ===
count: 48
Enqueued : 0

Enqueued : 3
Enqueued : 1
run #48 is not complete,skip
 === run 49 ===
 === run 49 ===
count: 49
Enqueued : 0

Enqueued : 3
Enqueued : 1
                 Dequed : 2
Enqueued : 2

                 Dequed : 3
                 Dequed : 1
                 Dequed : 0
Not Quazi Linearizable
 === run 50 ===
 === run 50 ===
count: 50
Enqueued : 0

Enqueued : 3
Enqueued : 1
                 Dequed : 2
Enqueued : 2

                 Dequed : 3
                 Dequed : 1
                 Dequed : 0
Not Quazi Linearizable
 === run 51 ===
 === run 51 ===
count: 51
Enqueued : 0

Enqueued : 3
Enqueued : 1
                 Dequed : 2
Enqueued : 2

                 Dequed : 3
                 Dequed : 1
                 Dequed : 0
Not Quazi Linearizable
 === run 52 ===
 === run 52 ===
count: 52
Enqueued : 0

Enqueued : 3
Enqueued : 1
                 Dequed : 2
Enqueued : 2

                 Dequed : 3
                 Dequed : 1
                 Dequed : 0
Not Quazi Linearizable
 === run 53 ===
 === run 53 ===
count: 53
Enqueued : 0

Enqueued : 3
Enqueued : 1
Enqueued : 2
run #53 is not complete,skip
 === run 54 ===
 === run 54 ===
count: 54
Enqueued : 0

Enqueued : 1
Enqueued : 3
                 Dequed : 2
Enqueued : 2

                 Dequed : 3
                 Dequed : 1
                 Dequed : 0
Not Quazi Linearizable
 === run 55 ===
 === run 55 ===
count: 55
Enqueued : 0

Enqueued : 1
Enqueued : 3
                 Dequed : 2
Enqueued : 2

                 Dequed : 3
                 Dequed : 1
                 Dequed : 0
Not Quazi Linearizable
 === run 56 ===
 === run 56 ===
count: 56
Enqueued : 0

Enqueued : 3
                 Dequed : 3
Enqueued : 1
Enqueued : 2

                 Dequed : 2
                 Dequed : 1
                 Dequed : 0
Not Quazi Linearizable
 === run 57 ===
 === run 57 ===
count: 57
Enqueued : 0

Enqueued : 3
Enqueued : 1
                 Dequed : 3
Enqueued : 2

                 Dequed : 2
                 Dequed : 1
                 Dequed : 0
Not Quazi Linearizable
 === run 58 ===
 === run 58 ===
count: 58
Enqueued : 0

Enqueued : 3
Enqueued : 1
run #58 is not complete,skip
 === run 59 ===
 === run 59 ===
count: 59
Enqueued : 0

Enqueued : 3
Enqueued : 1
                 Dequed : 2
Enqueued : 2

                 Dequed : 3
                 Dequed : 1
                 Dequed : 0
Not Quazi Linearizable
 === run 60 ===
 === run 60 ===
count: 60
Enqueued : 0

Enqueued : 3
Enqueued : 1
                 Dequed : 2
Enqueued : 2

                 Dequed : 3
                 Dequed : 1
                 Dequed : 0
Not Quazi Linearizable
 === run 61 ===
 === run 61 ===
count: 61
Enqueued : 0

Enqueued : 3
Enqueued : 1
                 Dequed : 2
Enqueued : 2

                 Dequed : 3
                 Dequed : 1
                 Dequed : 0
Not Quazi Linearizable
 === run 62 ===
 === run 62 ===
count: 62
Enqueued : 0

Enqueued : 3
Enqueued : 1
                 Dequed : 2
Enqueued : 2

                 Dequed : 3
                 Dequed : 1
                 Dequed : 0
Not Quazi Linearizable
 === run 63 ===
 === run 63 ===
count: 63
Enqueued : 0

Enqueued : 1
Enqueued : 3
                 Dequed : 2
Enqueued : 2

                 Dequed : 3
                 Dequed : 1
                 Dequed : 0
Not Quazi Linearizable
 === run 64 ===
 === run 64 ===
count: 64
Enqueued : 0

Enqueued : 1
Enqueued : 3
                 Dequed : 2
Enqueued : 2

                 Dequed : 3
                 Dequed : 1
                 Dequed : 0
Not Quazi Linearizable
 === run 65 ===
 === run 65 ===
count: 65
Enqueued : 0

Enqueued : 1
run #65 is not complete,skip
 === run 66 ===
 === run 66 ===
count: 66
Enqueued : 0

Enqueued : 3
                 Dequed : 3
Enqueued : 1
Enqueued : 2

                 Dequed : 1
                 Dequed : 0
                 Dequed : 2
Not Quazi Linearizable
 === run 67 ===
 === run 67 ===
count: 67
Enqueued : 0

Enqueued : 3
Enqueued : 1
                 Dequed : 3
Enqueued : 2

                 Dequed : 1
                 Dequed : 0
                 Dequed : 2
Not Quazi Linearizable
 === run 68 ===
 === run 68 ===
count: 68
Enqueued : 0

Enqueued : 3
Enqueued : 1
                 Dequed : 3
Enqueued : 2

                 Dequed : 1
                 Dequed : 0
                 Dequed : 2
Not Quazi Linearizable
 === run 69 ===
 === run 69 ===
count: 69
Enqueued : 0

Enqueued : 3
Enqueued : 1
                 Dequed : 3
Enqueued : 2

                 Dequed : 1
                 Dequed : 0
                 Dequed : 2
Not Quazi Linearizable
 === run 70 ===
 === run 70 ===
count: 70
Enqueued : 0

Enqueued : 1
Enqueued : 2
run #70 is not complete,skip
 === run 71 ===
 === run 71 ===
count: 71
Enqueued : 0

Enqueued : 1
Enqueued : 3
                 Dequed : 1
Enqueued : 2

                 Dequed : 0
                 Dequed : 2
                 Dequed : 3
Not Quazi Linearizable
 === run 72 ===
 === run 72 ===
count: 72
Enqueued : 0

Enqueued : 1
Enqueued : 3
Enqueued : 2
                 Dequed : 1

                 Dequed : 0
                 Dequed : 2
                 Dequed : 3
Not Quazi Linearizable
 === run 73 ===
 === run 73 ===
count: 73
Enqueued : 0

Enqueued : 1
Enqueued : 3
                 Dequed : 1
Enqueued : 2

                 Dequed : 0
                 Dequed : 2
                 Dequed : 3
Not Quazi Linearizable
 === run 74 ===
 === run 74 ===
count: 74
Enqueued : 0

Enqueued : 1
Enqueued : 3
Enqueued : 2
                 Dequed : 1

                 Dequed : 0
                 Dequed : 2
                 Dequed : 3
Not Quazi Linearizable
 === run 75 ===
 === run 75 ===
count: 75
Enqueued : 0

Enqueued : 1
Enqueued : 3
                 Dequed : 1
Enqueued : 2

                 Dequed : 0
                 Dequed : 2
                 Dequed : 3
Not Quazi Linearizable
 === run 76 ===
 === run 76 ===
count: 76
Enqueued : 0

Enqueued : 1
Enqueued : 3
Enqueued : 2
                 Dequed : 1

                 Dequed : 0
                 Dequed : 2
                 Dequed : 3
Not Quazi Linearizable
 === run 77 ===
 === run 77 ===
count: 77
Enqueued : 0

Enqueued : 1
Enqueued : 3
                 Dequed : 1
Enqueued : 2

                 Dequed : 0
                 Dequed : 2
                 Dequed : 3
Not Quazi Linearizable
 === run 78 ===
 === run 78 ===
count: 78
Enqueued : 0

Enqueued : 1
Enqueued : 3
Enqueued : 2
                 Dequed : 1

                 Dequed : 0
                 Dequed : 2
                 Dequed : 3
Not Quazi Linearizable
 === run 79 ===
 === run 79 ===
count: 79
Enqueued : 0

Enqueued : 1
Enqueued : 2
Enqueued : 3
                 Dequed : 1

                 Dequed : 0
                 Dequed : 2
                 Dequed : 3
Not Quazi Linearizable
 === run 80 ===
 === run 80 ===
count: 80
Enqueued : 0

Enqueued : 1
Enqueued : 2
Enqueued : 3
                 Dequed : 1

                 Dequed : 0
                 Dequed : 2
                 Dequed : 3
Not Quazi Linearizable
 === run 81 ===
 === run 81 ===
count: 81
Enqueued : 0

Enqueued : 1
run #81 is not complete,skip
 === run 82 ===
 === run 82 ===
count: 82
Enqueued : 0

Enqueued : 1
run #82 is not complete,skip
 === run 83 ===
 === run 83 ===
count: 83
Enqueued : 0

Enqueued : 1
Enqueued : 3
                 Dequed : 1
Enqueued : 2

                 Dequed : 0
                 Dequed : 3
                 Dequed : 2
Not Quazi Linearizable
 === run 84 ===
 === run 84 ===
count: 84
Enqueued : 0

Enqueued : 1
Enqueued : 3
Enqueued : 2
                 Dequed : 1

                 Dequed : 0
                 Dequed : 3
                 Dequed : 2
Not Quazi Linearizable
 === run 85 ===
 === run 85 ===
count: 85
Enqueued : 0

Enqueued : 1
Enqueued : 3
                 Dequed : 1
Enqueued : 2

                 Dequed : 0
                 Dequed : 3
                 Dequed : 2
Not Quazi Linearizable
 === run 86 ===
 === run 86 ===
count: 86
Enqueued : 0

Enqueued : 1
Enqueued : 3
Enqueued : 2
                 Dequed : 1

                 Dequed : 0
                 Dequed : 3
                 Dequed : 2
Not Quazi Linearizable
 === run 87 ===
 === run 87 ===
count: 87
Enqueued : 0

Enqueued : 1
Enqueued : 2
Enqueued : 3
                 Dequed : 1

                 Dequed : 0
                 Dequed : 3
                 Dequed : 2
Not Quazi Linearizable
 === run 88 ===
 === run 88 ===
count: 88
Enqueued : 0

Enqueued : 1
Enqueued : 2
Enqueued : 3
                 Dequed : 1

                 Dequed : 0
                 Dequed : 3
                 Dequed : 2
Not Quazi Linearizable
 === run 89 ===
 === run 89 ===
count: 89
Enqueued : 0

Enqueued : 1
Enqueued : 3
                 Dequed : 1
Enqueued : 2

                 Dequed : 0
                 Dequed : 3
                 Dequed : 2
Not Quazi Linearizable
 === run 90 ===
 === run 90 ===
count: 90
Enqueued : 0

Enqueued : 1
Enqueued : 3
                 Dequed : 1
Enqueued : 2

                 Dequed : 0
                 Dequed : 3
                 Dequed : 2
Not Quazi Linearizable
 === run 91 ===
 === run 91 ===
count: 91
Enqueued : 0

Enqueued : 1
Enqueued : 2
run #91 is not complete,skip
 === run 92 ===
 === run 92 ===
count: 92
Enqueued : 0

Enqueued : 1
Enqueued : 3
                 Dequed : 1
Enqueued : 2

                 Dequed : 0
                 Dequed : 2
                 Dequed : 3
Not Quazi Linearizable
 === run 93 ===
 === run 93 ===
count: 93
Enqueued : 0

Enqueued : 1
Enqueued : 3
Enqueued : 2
                 Dequed : 1

                 Dequed : 0
                 Dequed : 2
                 Dequed : 3
Not Quazi Linearizable
 === run 94 ===
 === run 94 ===
count: 94
Enqueued : 0

Enqueued : 1
Enqueued : 3
                 Dequed : 1
Enqueued : 2

                 Dequed : 0
                 Dequed : 2
                 Dequed : 3
Not Quazi Linearizable
 === run 95 ===
 === run 95 ===
count: 95
Enqueued : 0

Enqueued : 1
Enqueued : 3
Enqueued : 2
                 Dequed : 1

                 Dequed : 0
                 Dequed : 2
                 Dequed : 3
Not Quazi Linearizable
 === run 96 ===
 === run 96 ===
count: 96
Enqueued : 0

Enqueued : 1
Enqueued : 3
                 Dequed : 1
Enqueued : 2

                 Dequed : 0
                 Dequed : 2
                 Dequed : 3
Not Quazi Linearizable
 === run 97 ===
 === run 97 ===
count: 97
Enqueued : 0

Enqueued : 1
Enqueued : 3
Enqueued : 2
                 Dequed : 1

                 Dequed : 0
                 Dequed : 2
                 Dequed : 3
Not Quazi Linearizable
 === run 98 ===
 === run 98 ===
count: 98
Enqueued : 0

Enqueued : 1
Enqueued : 3
                 Dequed : 1
Enqueued : 2

                 Dequed : 0
                 Dequed : 2
                 Dequed : 3
Not Quazi Linearizable
 === run 99 ===
 === run 99 ===
count: 99
Enqueued : 0

Enqueued : 1
Enqueued : 3
Enqueued : 2
                 Dequed : 1

                 Dequed : 0
                 Dequed : 2
                 Dequed : 3
Not Quazi Linearizable
 === run 100 ===
 === run 100 ===
count: 100
Enqueued : 0

Enqueued : 1
Enqueued : 2
Enqueued : 3
                 Dequed : 1

                 Dequed : 0
                 Dequed : 2
                 Dequed : 3
Not Quazi Linearizable
 === run 101 ===
 === run 101 ===
count: 101
Enqueued : 0

Enqueued : 1
Enqueued : 2
Enqueued : 3
                 Dequed : 1

                 Dequed : 0
                 Dequed : 2
                 Dequed : 3
Not Quazi Linearizable
 === run 102 ===
 === run 102 ===
count: 102
Enqueued : 0

Enqueued : 1
run #102 is not complete,skip
 === run 103 ===
 === run 103 ===
count: 103
Enqueued : 0

Enqueued : 1
run #103 is not complete,skip
 === run 104 ===
 === run 104 ===
count: 104
Enqueued : 0

Enqueued : 1
Enqueued : 3
                 Dequed : 1
Enqueued : 2

                 Dequed : 0
                 Dequed : 3
                 Dequed : 2
Not Quazi Linearizable
 === run 105 ===
 === run 105 ===
count: 105
Enqueued : 0

Enqueued : 1
Enqueued : 3
Enqueued : 2
                 Dequed : 1

                 Dequed : 0
                 Dequed : 3
                 Dequed : 2
Not Quazi Linearizable
 === run 106 ===
 === run 106 ===
count: 106
Enqueued : 0

Enqueued : 1
Enqueued : 3
                 Dequed : 1
Enqueued : 2

                 Dequed : 0
                 Dequed : 3
                 Dequed : 2
Not Quazi Linearizable
 === run 107 ===
 === run 107 ===
count: 107
Enqueued : 0

Enqueued : 1
Enqueued : 3
Enqueued : 2
                 Dequed : 1

                 Dequed : 0
                 Dequed : 3
                 Dequed : 2
Not Quazi Linearizable
 === run 108 ===
 === run 108 ===
count: 108
Enqueued : 0

Enqueued : 1
Enqueued : 2
Enqueued : 3
                 Dequed : 1

                 Dequed : 0
                 Dequed : 3
                 Dequed : 2
Not Quazi Linearizable
 === run 109 ===
 === run 109 ===
count: 109
Enqueued : 0

Enqueued : 1
Enqueued : 2
Enqueued : 3
                 Dequed : 1

                 Dequed : 0
                 Dequed : 3
                 Dequed : 2
Not Quazi Linearizable
 === run 110 ===
 === run 110 ===
count: 110
Enqueued : 0

Enqueued : 1
Enqueued : 3
                 Dequed : 1
Enqueued : 2

                 Dequed : 0
                 Dequed : 3
                 Dequed : 2
Not Quazi Linearizable
 === run 111 ===
 === run 111 ===
count: 111
Enqueued : 0

Enqueued : 1
Enqueued : 3
                 Dequed : 1
Enqueued : 2

                 Dequed : 0
                 Dequed : 3
                 Dequed : 2
Not Quazi Linearizable
 === run 112 ===
 === run 112 ===
count: 112
Enqueued : 0

Enqueued : 1
Enqueued : 2
run #112 is not complete,skip

===================================
Total number of runs:  112,   sleepset killed runs: 21
Transitions explored: 17526
total_check  : 91
total_lin    : 0
total_not_lin: 91
Used time (seconds): 8.759503
