(e=  3, t=1, type= obj_call     , o=6    ,function=NQuasiQueue::enqMethod(int))   
(e=  4, t=1, type= obj_resp     , o=6    ,function=NQuasiQueue::enqMethod(int))   
(e=  5, t=2, type= obj_call     , o=6    ,function=NQuasiQueue::enqMethod(int))   
(e=  6, t=2, type= obj_resp     , o=6    ,function=NQuasiQueue::enqMethod(int))   
(e=  1, t=0, type= obj_call     , o=6    ,function=NQuasiQueue::enqMethod(int))   
(e=  2, t=0, type= obj_resp     , o=6    ,function=NQuasiQueue::enqMethod(int))   
(e=  7, t=2, type= obj_call     , o=6    ,function=NQuasiQueue::enqMethod(int))   
(e=  8, t=1, type= obj_call     , o=6    ,function=NQuasiQueue::deqMethod())   
